{
    "apps": [
        {
            "name": "rule_engine",
            "script": "build/index.js",
            "cwd": "./",
            "merge_logs": true,
            "max_restarts": 20,
            "instances": "max",
            "exec_mode": "cluster",
            "max_memory_restart": "200M",
            "env": {
                "PORT": 3015,
                "NODE_ENV": "production"
            }
        }
    ]
}
